{
  "type": "minecraft:smithing",
  "addition": {
    "tag": "c:netherite_ingots"
  },
  "base": {
    "item": "expandedstorage:copper_to_obsidian_conversion_kit"
  },
  "result": {
    "item": "expandedstorage:copper_to_netherite_conversion_kit"
  }
}