{
  "schemaVersion": 1,
  "depends": {
    "fabricloader": ">=0.14.14",
    "minecraft": ">=1.19.4- <1.19.5-",
    "fabric-api": ">=0.76.0+1.19.4"
  },
  "breaks": {
    "ellemes_container_lib": "*"
  },
  "entrypoints": {
    "main": [
      "ellemes.expandedstorage.fabric.FabricMain"
    ],
    "client": [
      "ellemes.expandedstorage.fabric.FabricClient"
    ],
    "fabric-datagen": [
      "ellemes.expandedstorage.thread.datagen.Main"
    ],
    "modmenu": [
      "ellemes.expandedstorage.thread.client.ModMenuCompat"
    ],
    "rei_client": [
      "ellemes.expandedstorage.thread.client.ReiCompat"
    ],
    "emi": [
      "ellemes.expandedstorage.thread.client.EmiCompat"
    ],
    "jei_mod_plugin": [
      "ellemes.expandedstorage.common.client.JeiCompat"
    ]
  },
  "environment": "*",
  "authors": ["Bucket of Compasses"],
  "mixins": [
    "expandedstorage-common.mixins.json",
    "expandedstorage-thread.mixins.json"
  ],
  "contact": {
    "homepage": "https://modrinth.com/mod/expanded-storage",
    "issues": "https://gitlab.com/BucketOfCompasses/expanded-storage/-/issues",
    "sources": "https://gitlab.com/BucketOfCompasses/expanded-storage"
  },
  "icon": "icon.png",
  "id": "expandedstorage",
  "name": "Expanded Storage",
  "version": "${version}"
}
