{
  "parent": "minecraft:block/block",
  "elements": [
    {
      "from": [0, 0, 0],
      "to": [16, 16, 16],
      "faces": {
        "down": {
          "uv": [4, 0, 0, 4],
          "texture": "#all",
          "cullface": "down"
        },
        "north": {
          "uv": [4, 4, 8, 8],
          "texture": "#all",
          "cullface": "north"
        },
        "south": {
          "uv": [4, 4, 8, 8],
          "texture": "#all",
          "cullface": "south"
        },
        "west": {
          "uv": [4, 4, 8, 8],
          "texture": "#all",
          "cullface": "west"
        },
        "east": {
          "uv": [4, 4, 8, 8],
          "texture": "#all",
          "cullface": "east"
        }
      }
    }
  ],
  "textures": {
    "all": "#atlas"
  }
}
