{
  "parent":  "minecraft:builtin/entity",
  "display": {
    "gui":                   {
      "rotation":    [30, 45, 0],
      "translation": [6.5, -0.2, 0],
      "scale":       [0.5625, 0.5625, 0.5625]
    },
    "ground":                {
      "translation": [2, 3, 2],
      "scale":       [0.25, 0.25, 0.25]
    },
    "fixed":                 {
      "rotation": [0, 180, 0],
      "scale":    [0.5, 0.5, 0.5]
    },
    "thirdperson_righthand": {
      "rotation":    [75, 45, 0],
      "translation": [4.5, 4.5, 0],
      "scale":       [0.375, 0.375, 0.375]
    },
    "firstperson_righthand": {
      "rotation":    [0, 45, 0],
      "translation": [4, 1.5, 0],
      "scale":       [0.4, 0.4, 0.4]
    }
  }
}
