{
  "parent":    "expandedstorage:block/diamond_mini_barrel",
  "overrides": [
    {
      "predicate": {"expandedstorage:sparrow": 1.0},
      "model":     "expandedstorage:block/diamond_mini_barrel_with_sparrow"
    }
  ]
}
