{
  "parent":    "expandedstorage:block/gold_mini_chest",
  "overrides": [
    {
      "predicate": {"expandedstorage:sparrow": 1.0},
      "model":     "expandedstorage:block/gold_mini_chest_with_sparrow"
    }
  ]
}
