{
  "parent":    "expandedstorage:block/lavender_mini_present",
  "overrides": [
    {
      "predicate": {"expandedstorage:sparrow": 1.0},
      "model":     "expandedstorage:block/lavender_mini_present_with_sparrow"
    }
  ]
}
