{
  "parent": "minecraft:recipes/root",
  "criteria": {
    "has_previous_kit": {
      "conditions": {
        "items": [
          {
            "items": [
              "expandedstorage:copper_to_obsidian_conversion_kit"
            ]
          }
        ]
      },
      "trigger": "minecraft:inventory_changed"
    },
    "has_the_recipe": {
      "conditions": {
        "recipe": "expandedstorage:copper_to_netherite_conversion_kit"
      },
      "trigger": "minecraft:recipe_unlocked"
    }
  },
  "requirements": [
    [
      "has_previous_kit",
      "has_the_recipe"
    ]
  ],
  "rewards": {
    "recipes": [
      "expandedstorage:copper_to_netherite_conversion_kit"
    ]
  }
}