{
  "type": "minecraft:crafting_shaped",
  "category": "misc",
  "group": "expandedstorage:diamond_chest",
  "key": {
    "B": {
      "item": "expandedstorage:gold_chest"
    },
    "D": {
      "tag": "forge:gems/diamond"
    },
    "G": {
      "tag": "forge:glass"
    }
  },
  "pattern": [
    "GGG",
    "DBD",
    "GGG"
  ],
  "result": {
    "item": "expandedstorage:diamond_chest"
  },
  "show_notification": true
}