{
  "type": "minecraft:smithing",
  "addition": {
    "tag": "forge:ingots/netherite"
  },
  "base": {
    "item": "expandedstorage:obsidian_barrel"
  },
  "result": {
    "item": "expandedstorage:netherite_barrel"
  }
}