{
  "type": "minecraft:crafting_shaped",
  "category": "misc",
  "key": {
    "I": {
      "tag": "forge:ingots/copper"
    },
    "P": {
      "tag": "minecraft:planks"
    }
  },
  "pattern": [
    "III",
    "IPI",
    "III"
  ],
  "result": {
    "item": "expandedstorage:wood_to_copper_conversion_kit"
  },
  "show_notification": true
}