{
  "parent": "minecraft:block/block",
  "elements": [
    {
      "from": [0, 0, 0],
      "to": [16, 16, 16],
      "faces": {
        "down": {
          "texture": "#bottom",
          "cullface": "down"
        },
        "up": {
          "texture": "#top",
          "cullface": "up"
        },
        "north": {
          "texture": "#side",
          "cullface": "north"
        },
        "south": {
          "texture": "#side",
          "cullface": "south"
        },
        "west": {
          "texture": "#side",
          "cullface": "west"
        },
        "east": {
          "texture": "#side",
          "cullface": "east"
        }
      }
    },
    {
      "from": [0, 0, 0],
      "to": [16, 16, 16],
      "faces": {
        "north": {
          "texture": "#strip",
          "cullface": "north"
        },
        "south": {
          "texture": "#strip",
          "cullface": "south"
        },
        "west": {
          "texture": "#strip",
          "cullface": "west"
        },
        "east": {
          "texture": "#strip",
          "cullface": "east"
        }
      }
    }
  ],
  "textures": {
    "particle": "minecraft:block/barrel_side",
    "top": "minecraft:block/barrel_top",
    "bottom": "minecraft:block/barrel_bottom",
    "side": "minecraft:block/barrel_side"
  },
  "render_type": "cutout_mipped"
}
