{
  "variants": {
    "facing=down,open=false":  {
      "x":     180,
      "model": "expandedstorage:block/copper_barrel"
    },
    "facing=down,open=true":   {
      "x":     180,
      "model": "expandedstorage:block/copper_barrel_open"
    },
    "facing=east,open=false":  {
      "x":     90,
      "y":     90,
      "model": "expandedstorage:block/copper_barrel"
    },
    "facing=east,open=true":   {
      "x":     90,
      "y":     90,
      "model": "expandedstorage:block/copper_barrel_open"
    },
    "facing=north,open=false": {
      "x":     90,
      "model": "expandedstorage:block/copper_barrel"
    },
    "facing=north,open=true":  {
      "x":     90,
      "model": "expandedstorage:block/copper_barrel_open"
    },
    "facing=south,open=false": {
      "x":     90,
      "y":     180,
      "model": "expandedstorage:block/copper_barrel"
    },
    "facing=south,open=true":  {
      "x":     90,
      "y":     180,
      "model": "expandedstorage:block/copper_barrel_open"
    },
    "facing=up,open=false":    {
      "model": "expandedstorage:block/copper_barrel"
    },
    "facing=up,open=true":     {
      "model": "expandedstorage:block/copper_barrel_open"
    },
    "facing=west,open=false":  {
      "x":     90,
      "y":     270,
      "model": "expandedstorage:block/copper_barrel"
    },
    "facing=west,open=true":   {
      "x":     90,
      "y":     270,
      "model": "expandedstorage:block/copper_barrel_open"
    }
  }
}
